<?xml version="1.0" standalone="no"?>
<!DOCTYPE svg PUBLIC "-//W3C//DTD SVG 20010904//EN"
 "http://www.w3.org/TR/2001/REC-SVG-20010904/DTD/svg10.dtd">
<svg version="1.0" xmlns="http://www.w3.org/2000/svg"
 width="1600.000000pt" height="1600.000000pt" viewBox="0 0 1600.000000 1600.000000"
 preserveAspectRatio="xMidYMid meet">

<g transform="translate(0.000000,1600.000000) scale(0.100000,-0.100000)"
fill="#000000" stroke="none">
<path d="M12865 13981 c-152 -32 -289 -83 -820 -306 -165 -70 -841 -354 -1570
-660 -1346 -566 -6365 -2679 -7920 -3335 -407 -172 -774 -326 -815 -343 -252
-102 -479 -273 -596 -448 -192 -289 -189 -644 8 -947 103 -159 300 -322 512
-426 59 -29 523 -190 1315 -456 672 -225 1230 -414 1239 -419 10 -5 71 -190
169 -512 368 -1205 728 -2372 774 -2506 127 -373 290 -608 490 -705 85 -41
243 -78 337 -78 144 0 310 48 441 128 35 22 353 305 767 682 388 355 714 651
724 658 15 11 72 -29 491 -351 261 -200 805 -617 1209 -927 803 -616 774 -597
988 -654 382 -102 814 -25 1088 196 140 112 271 280 349 444 34 72 83 314 971
4862 514 2633 944 4839 955 4902 29 161 30 380 1 507 -43 190 -126 337 -264
468 -118 112 -231 174 -398 220 -100 26 -330 30 -445 6z m-350 -3448 c-257
-1313 -673 -3448 -925 -4743 -272 -1394 -467 -2369 -477 -2389 -10 -19 -35
-45 -55 -59 -33 -21 -46 -24 -92 -19 -30 3 -75 14 -99 25 -25 11 -202 141
-394 288 -586 450 -648 498 -1627 1248 -521 400 -954 730 -960 732 -7 3 -404
-351 -882 -787 -478 -435 -878 -800 -890 -811 l-21 -19 8 53 c369 2343 369
2342 392 2364 12 12 355 331 762 710 407 378 871 810 1030 959 160 149 555
518 880 820 828 772 1592 1484 1917 1788 261 244 337 324 352 373 10 32 -12
127 -34 149 -17 16 -33 20 -83 19 -86 -2 -156 -31 -322 -134 -77 -48 -644
-399 -1260 -780 -616 -382 -1201 -744 -1300 -805 -99 -62 -306 -190 -460 -285
-154 -96 -334 -207 -400 -248 -66 -41 -158 -98 -205 -127 -47 -28 -245 -151
-440 -272 -195 -121 -564 -350 -820 -508 -256 -159 -548 -340 -650 -403 -102
-63 -236 -146 -298 -184 l-112 -70 -333 112 c-435 147 -1841 621 -2264 763
-183 62 -329 115 -325 118 4 4 293 127 642 274 349 147 921 388 1270 535 3418
1441 7969 3355 8695 3658 l240 100 3 -28 c2 -15 -207 -1103 -463 -2417z"/>
</g>
</svg>
